<?xml version="1.0" encoding="utf-8"?>
<!-- Generator: Adobe Illustrator 19.2.1, SVG Export Plug-In . SVG Version: 6.00 Build 0)  -->
<svg version="1.1" id="icons" xmlns="http://www.w3.org/2000/svg" xmlns:xlink="http://www.w3.org/1999/xlink" x="0px" y="0px"
	 viewBox="0 0 99.6 93.5" style="enable-background:new 0 0 99.6 93.5;" xml:space="preserve">
<style type="text/css">
	.st0{display:none;fill:#00FFCE;}
	.st1{opacity:0.4;}
	.st2{fill:none;stroke:#FFFFFF;stroke-width:5;stroke-miterlimit:10;}
</style>
<rect x="-139.6" y="-107.6" class="st0" width="358" height="349"/>
<path class="st1" d="M70.4,2.2c-7.9,0-15,3.3-19.9,8.7c-5-5.3-12.1-8.7-19.9-8.7c-14.3,0-26.1,11-27.2,25.1c0,0.2,0,0.4-0.1,0.7
	c0,0.2,0,0.4,0,0.6c0,0.2,0,0.4,0,0.6c0,0.1,0,0.1,0,0.2c0,0.1,0,0.1,0,0.2c0,3,0.5,5.9,1.4,8.6c7.7,26.1,45,52.3,45,52.3
	c0.5,0.3,1.2,0.3,1.6,0c0,0,36-25.3,44.6-50.9c1.2-3.1,1.9-6.5,1.9-10C97.7,14.4,85.5,2.2,70.4,2.2z"/>
<path class="st2" d="M69.7,2.5c-7.9,0-15,3.3-19.9,8.7c-5-5.3-12.1-8.7-19.9-8.7c-14.3,0-26.1,11-27.2,25.1c0,0.2,0,0.4-0.1,0.7
	c0,0.2,0,0.4,0,0.6c0,0.2,0,0.4,0,0.6c0,0.1,0,0.1,0,0.2c0,0.1,0,0.1,0,0.2c0,3,0.5,5.9,1.4,8.6c7.7,26.1,45,52.3,45,52.3
	c0.5,0.3,1.2,0.3,1.6,0c0,0,36-25.3,44.6-50.9c1.2-3.1,1.9-6.5,1.9-10C97.1,14.7,84.8,2.5,69.7,2.5z"/>
</svg>
