<?xml version="1.0" encoding="utf-8"?>
<!-- Generator: Adobe Illustrator 21.1.0, SVG Export Plug-In . SVG Version: 6.00 Build 0)  -->
<svg version="1.1" id="ClassicReply" xmlns="http://www.w3.org/2000/svg" xmlns:xlink="http://www.w3.org/1999/xlink" x="0px"
	 y="0px" viewBox="0 0 105.9 105.9" style="enable-background:new 0 0 105.9 105.9;" xml:space="preserve">
<style type="text/css">
	.st0{fill:#4DB172;}
</style>
<image style="display:none;overflow:visible;" width="352" height="262" id="Layer_0_1_" xlink:href="203B5C9BABD42803.png"  transform="matrix(0.5487 0 0 0.5487 -45.1568 -19.4268)">
</image>
<g id="_Group__2_">
	<path id="_Path__2_" class="st0" d="M90.4,71.5l-7.2-7.2c-0.5-0.5-1.2-0.5-1.7,0c-0.2,0.2-0.3,0.5-0.3,0.8v3.8
		c0,0.4-0.3,0.7-0.7,0.7c0,0,0,0-0.1,0l-42.2,0.1c-0.8,0-1.5,0.6-1.5,1.4v4.2c0,0.8,0.7,1.5,1.5,1.5c0,0,0,0,0,0h42.3
		c0.4,0,0.7,0.3,0.7,0.7c0,0,0,0,0,0.1v3.8c0,0.7,0.5,1.2,1.2,1.2c0.3,0,0.6-0.1,0.8-0.3l7.2-7.2C91.4,73.9,91.4,72.4,90.4,71.5z"/>
</g>
<path id="circle" d="M53,0C33.5,0,16.5,10.5,7.3,26.1h5.9C21.8,13.4,36.4,5,53,5c26.4,0,48,21.5,48,48c0,26.4-21.5,48-48,48
	c-26.4,0-48-21.5-48-48c0-2.4,0.2-4.7,0.5-7h-5C0.2,48.2,0,50.6,0,53c0,29.2,23.7,53,53,53c29.2,0,53-23.7,53-53
	C105.9,23.7,82.2,0,53,0z"/>
<g id="_Group_">
	<path id="_Path_" class="st0" d="M34.7,34.3l-7.2-7.2c-0.5-0.5-1.2-0.5-1.7,0c-0.2,0.2-0.3,0.5-0.3,0.8v3.8c0,0.4-0.3,0.7-0.7,0.7
		c0,0,0,0-0.1,0L1.5,32.5C0.7,32.5,0,33.2,0,34v4.2c0,0.8,0.7,1.5,1.5,1.5c0,0,0,0,0,0h23.3c0.4,0,0.7,0.3,0.7,0.7c0,0,0,0,0,0.1
		v3.8c0,0.7,0.5,1.2,1.2,1.2c0.3,0,0.6-0.1,0.8-0.3l7.2-7.2C35.6,36.8,35.6,35.3,34.7,34.3z"/>
</g>
<g id="_Group__1_">
	<path id="_Path__1_" class="st0" d="M64.3,52.4l-7.2-7.2c-0.5-0.5-1.2-0.5-1.7,0c-0.2,0.2-0.3,0.5-0.3,0.8v3.8
		c0,0.4-0.3,0.7-0.7,0.7c0,0,0,0-0.1,0l-34.2,0.1c-0.8,0-1.5,0.6-1.5,1.4v4.2c0,0.8,0.7,1.5,1.5,1.5c0,0,0,0,0,0h34.3
		c0.4,0,0.7,0.3,0.7,0.7c0,0,0,0,0,0.1v3.8c0,0.7,0.5,1.2,1.2,1.2c0.3,0,0.6-0.1,0.8-0.3l7.2-7.2C65.2,54.9,65.2,53.4,64.3,52.4z"/>
</g>
</svg>
